Data manipulation using dplyr
…
---

# The `nycflights13` dataset

As an example dataset we will be using `nycflights13` package, and the dataset `flights`.
It consists the 336,776 flights that departed from New York in 2013.

```r
install.packages("nycflights13")
library(nycflights13)
flights
```

```
## # A tibble: 336,776 × 19
##     year month   day dep_time sched_dep_time dep_delay arr_time sched_arr_time
##    <int> <int> <int>    <int>          <int>     <dbl>    <int>          <int>
##  1  2013     1     1      517            515         2      830            819
##  2  2013     1     1      533            529         4      850            830
##  3  2013     1     1      542            540         2      923            850
##  4  2013     1     1      544            545        -1     1004           1022
##  5  2013     1     1      554            600        -6      812            837
##  6  2013     1     1      554            558        -4      740            728
##  7  2013     1     1      555            600        -5      913            854
##  8  2013     1     1      557            600        -3      709            723
##  9  2013     1     1      557            600        -3      838            846
## 10  2013     1     1      558            600        -2      753            745
## # … with 336,766 more rows, and 11 more variables: arr_delay <dbl>,
## #   carrier <chr>, flight <int>, tailnum <chr>, origin <chr>, dest <chr>,
## #   air_time <dbl>, distance <dbl>, hour <dbl>, minute <dbl>, time_hour <dttm>
```
…
Within the dplyr function call, all the variables in the data frame are available for us to use.
Outside the function call, we still have to refer to the variables by specifying the data frame and the variable within the data frame.

---

# Selecting rows with `filter`

Flights that were not delayed:

```r
filter(flights, dep_delay <= 0)
```

```
## # A tibble: 200,089 × 19
##    year month   day dep_time sched_dep_time dep_delay arr_time sched_arr_time
##   <int> <int> <int>    <int>          <int>     <dbl>    <int>          <int>
## 1  2013     1     1      544            545        -1     1004           1022
## 2  2013     1     1      554            600        -6      812            837
## 3  2013     1     1      554            558        -4      740            728
## 4  2013     1     1      555            600        -5      913            854
## 5  2013     1     1      557            600        -3      709            723
## # … with 200,084 more rows, and 11 more variables: arr_delay <dbl>,
## #   carrier <chr>, flight <int>, tailnum <chr>, origin <chr>, dest <chr>,
## #   air_time <dbl>, distance <dbl>, hour <dbl>, minute <dbl>, time_hour <dttm>
```
…
---

# Selecting rows with `filter`

We can make more complex filters by setting up multiple criteria.

```r
filter(flights, dep_delay <= 0, origin == "JFK")
```

```
## # A tibble: 67,385 × 19
##    year month   day dep_time sched_dep_time dep_delay arr_time sched_arr_time
##   <int> <int> <int>    <int>          <int>     <dbl>    <int>          <int>
## 1  2013     1     1      544            545        -1     1004           1022
## 2  2013     1     1      557            600        -3      838            846
## 3  2013     1     1      558            600        -2      849            851
## 4  2013     1     1      558            600        -2      853            856
## 5  2013     1     1      558            600        -2      924            917
## # … with 67,380 more rows, and 11 more variables: arr_delay <dbl>,
## #   carrier <chr>, flight <int>, tailnum <chr>, origin <chr>, dest <chr>,
## #   air_time <dbl>, distance <dbl>, hour <dbl>, minute <dbl>, time_hour <dttm>
```
…
# Selecting columns with `select`

.left-column[
## Basics
]

.right-column[
We can subset a data frame to just the columns we are interested in with `select`.

```r
select(flights, origin, dest, dep_time)
```

```
## # A tibble: 336,776 × 3
##   origin dest  dep_time
##   <chr>  <chr>    <int>
## 1 EWR    IAH        517
## 2 LGA    IAH        533
## 3 JFK    MIA        542
## 4 JFK    BQN        544
## 5 LGA    ATL        554
## # … with 336,771 more rows
```
…
.left-column[
## Basics
## Ranges
]

.right-column[
We can also select a range of columns with the `:` operator.

```r
select(flights, year:dep_time)
```

```
## # A tibble: 336,776 × 4
##    year month   day dep_time
##   <int> <int> <int>    <int>
## 1  2013     1     1      517
## 2  2013     1     1      533
## 3  2013     1     1      542
## 4  2013     1     1      544
## 5  2013     1     1      554
## # … with 336,771 more rows
```
…
.left-column[
## Basics
## Ranges
## Helper functions
### `starts_with`
]

.right-column[

```r
select(flights, starts_with("time"))
```

```
## # A tibble: 336,776 × 1
##   time_hour          
##   <dttm>             
## 1 2013-01-01 05:00:00
## 2 2013-01-01 05:00:00
## 3 2013-01-01 05:00:00
## 4 2013-01-01 05:00:00
## 5 2013-01-01 06:00:00
## # … with 336,771 more rows
```

```r
select(flights, starts_with(c("dep", "arr")))
```

```
## # A tibble: 336,776 × 4
##   dep_time dep_delay arr_time arr_delay
##      <int>     <dbl>    <int>     <dbl>
## 1      517         2      830        11
## 2      533         4      850        20
## 3      542         2      923        33
## 4      544        -1     1004       -18
## 5      554        -6      812       -25
## # … with 336,771 more rows
```
…
.right-column[

```r
select(flights, ends_with("time"))
```

```
## # A tibble: 336,776 × 5
##   dep_time sched_dep_time arr_time sched_arr_time air_time
##      <int>          <int>    <int>          <int>    <dbl>
## 1      517            515      830            819      227
## 2      533            529      850            830      227
## 3      542            540      923            850      160
## 4      544            545     1004           1022      183
## 5      554            600      812            837      116
## # … with 336,771 more rows
```

```r
select(flights, ends_with(c("time", "delay")))
```

```
## # A tibble: 336,776 × 7
##   dep_time sched_dep_time arr_time sched_arr_time air_time dep_delay arr_delay
##      <int>          <int>    <int>          <int>    <dbl>     <dbl>     <dbl>
## 1      517            515      830            819      227         2        11
## 2      533            529      850            830      227         4        20
## 3      542            540      923            850      160         2        33
## 4      544            545     1004           1022      183        -1       -18
## 5      554            600      812            837      116        -6       -25
## # … with 336,771 more rows
```
…
.right-column[

```r
select(flights, contains("st"))
```

```
## # A tibble: 336,776 × 2
##   dest  distance
##   <chr>    <dbl>
## 1 IAH       1400
## 2 IAH       1416
## 3 MIA       1089
## 4 BQN       1576
## 5 ATL        762
## # … with 336,771 more rows
```
…
.right-column[
All of the previous functions match strings literally.
`matches` is the most general of the bunch and can use [regular expressions](https://en.wikipedia.org/wiki/Regular_expression) for matching column names.

```r
select(flights, matches("d.*ay"))
```

```
## # A tibble: 336,776 × 3
##     day dep_delay arr_delay
##   <int>     <dbl>     <dbl>
## 1     1         2        11
## 2     1         4        20
## 3     1         2        33
## 4     1        -1       -18
## 5     1        -6       -25
## # … with 336,771 more rows
```
…
.left-column[
## Basics
]

.right-column[
`mutate` will create new variables at the end of the dataset, so let's use `select` to get a better overview.

```r
flights_small <- select(flights, ends_with("delay"), distance, air_time)
mutate(flights_small,
       speed_mph = distance / (air_time / 60))
```

```
## # A tibble: 336,776 × 5
##   dep_delay arr_delay distance air_time speed_mph
##       <dbl>     <dbl>    <dbl>    <dbl>     <dbl>
## 1         2        11     1400      227      370.
## 2         4        20     1416      227      374.
## 3         2        33     1089      160      408.
## 4        -1       -18     1576      183      517.
## 5        -6       -25      762      116      394.
## # … with 336,771 more rows
```
…
.left-column[
## Basics
]

.right-column[
We can even refer to our new variables *within* the call to `mutate`.

```r
mutate(flights_small,
       gain = dep_delay - arr_delay,
       gain_per_hour = gain / (air_time / 60))
```

```
## # A tibble: 336,776 × 6
##   dep_delay arr_delay distance air_time  gain gain_per_hour
##       <dbl>     <dbl>    <dbl>    <dbl> <dbl>         <dbl>
## 1         2        11     1400      227    -9         -2.38
## 2         4        20     1416      227   -16         -4.23
## 3         2        33     1089      160   -31        -11.6 
## 4        -1       -18     1576      183    17          5.57
## 5        -6       -25      762      116    19          9.83
## # … with 336,771 more rows
```
…
.right-column[
If we want to apply a function to several variables in our dataset, this is also possible using `across`.

```r
mutate(flights_small,
       speed = distance / (air_time / 60),
       across(.cols = c(distance, speed),
              .fns = ~ . / 1.609))
```

```
## # A tibble: 336,776 × 5
##   dep_delay arr_delay distance air_time speed
##       <dbl>     <dbl>    <dbl>    <dbl> <dbl>
## 1         2        11     870.      227  230.
## 2         4        20     880.      227  233.
## 3         2        33     677.      160  254.
## 4        -1       -18     979.      183  321.
## 5        -6       -25     474.      116  245.
## # … with 336,771 more rows
```
…
.right-column[
In the previous example, the original variables will be overwritten by the new ones we create.
If we don't want to replace them, we can set the names of the new columns using the `.names` argument (check `?across` for details).

```r
mutate(flights_small,
       speed = distance / (air_time / 60),
       across(.cols = c(distance, speed),
              .fns = ~ . / 1.609,
              .names = "{.col}_km"))
```

```
## # A tibble: 336,776 × 7
##   dep_delay arr_delay distance air_time speed distance_km speed_km
##       <dbl>     <dbl>    <dbl>    <dbl> <dbl>       <dbl>    <dbl>
## 1         2        11     1400      227  370.        870.     230.
## 2         4        20     1416      227  374.        880.     233.
## 3         2        33     1089      160  408.        677.     254.
## 4        -1       -18     1576      183  517.        979.     321.
## 5        -6       -25      762      116  394.        474.     245.
## # … with 336,771 more rows
```
…
.right-column[
Creating summaries on grouped data frames is much more useful.
This can be accomplished with using `summarise` together with `group_by`.

```r
by_day <- group_by(flights, year, month, day)
summarise(by_day, arr_delay = mean(arr_delay, na.rm = TRUE))
```

```
## # A tibble: 365 × 4
## # Groups:   year, month [12]
##    year month   day arr_delay
##   <int> <int> <int>     <dbl>
## 1  2013     1     1     12.7 
## 2  2013     1     2     12.7 
## 3  2013     1     3      5.73
## 4  2013     1     4     -1.93
## 5  2013     1     5     -1.53
## # … with 360 more rows
```
…
.right-column[
Let's say we want to add the name of the airline to the flights table.
In order to make the output a bit more readable, we create a new tibble with fewer variables.

```r
flights2 <- select(flights, year:day, hour, origin, dest, tailnum, carrier)
```

```r
left_join(flights2, airlines, by = "carrier")
```

```
## # A tibble: 336,776 × 9
##     year month   day  hour origin dest  tailnum carrier name                    
##    <int> <int> <int> <dbl> <chr>  <chr> <chr>   <chr>   <chr>                   
##  1  2013     1     1     5 EWR    IAH   N14228  UA      United Air Lines Inc.   
##  2  2013     1     1     5 LGA    IAH   N24211  UA      United Air Lines Inc.   
##  3  2013     1     1     5 JFK    MIA   N619AA  AA      American Airlines Inc.  
##  4  2013     1     1     5 JFK    BQN   N804JB  B6      JetBlue Airways         
##  5  2013     1     1     6 LGA    ATL   N668DN  DL      Delta Air Lines Inc.    
##  6  2013     1     1     5 EWR    ORD   N39463  UA      United Air Lines Inc.   
##  7  2013     1     1     6 EWR    FLL   N516JB  B6      JetBlue Airways         
##  8  2013     1     1     6 LGA    IAD   N829AS  EV      ExpressJet Airlines Inc.
##  9  2013     1     1     6 JFK    MCO   N593JB  B6      JetBlue Airways         
## 10  2013     1     1     6 LGA    ORD   N3ALAA  AA      American Airlines Inc.  
## # … with 336,766 more rows
```
…
.right-column[
Up until now, we've been executing all these functions one by one, potentially saving the intermediate result into a new variable:

```r
hnl_flights_1 <- filter(flights, dest == "HNL")
hnl_flights_2 <- mutate(hnl_flights_1,
                        avg_speed = (distance * 1.61) / (air_time / 60))
hnl_flights_3 <- select(hnl_flights_2, tailnum, avg_speed)
hnl_flights_4 <- arrange(hnl_flights_3, desc(avg_speed))
hnl_flights_4
```

```
## # A tibble: 707 × 2
##    tailnum avg_speed
##    <chr>       <dbl>
##  1 N66057       853.
##  2 N78060       850.
##  3 N67058       849.
##  4 N76065       847.
##  5 N69063       844.
##  6 N77066       843.
##  7 N66057       843.
##  8 N76055       837.
##  9 N76054       837.
## 10 N76054       834.
## # … with 697 more rows
```
…
```r
arrange(
  select(
    mutate(
      filter(flights, dest == "HNL"),
      avg_speed = (distance * 1.61) / (air_time / 60)
    ),
    tailnum, avg_speed
  ),
  desc(avg_speed)
)
```

```
## # A tibble: 707 × 2
##    tailnum avg_speed
##    <chr>       <dbl>
##  1 N66057       853.
##  2 N78060       850.
##  3 N67058       849.
##  4 N76065       847.
##  5 N69063       844.
##  6 N77066       843.
##  7 N66057       843.
##  8 N76055       837.
##  9 N76054       837.
## 10 N76054       834.
## # … with 697 more rows
```
…
.right-column[

```r
filter(flights, dest == "HNL") %>%
  mutate(avg_speed = (distance * 1.61) / (air_time / 60)) %>%
  select(tailnum, avg_speed) %>%
  arrange(desc(avg_speed))
```

```
## # A tibble: 707 × 2
##    tailnum avg_speed
##    <chr>       <dbl>
##  1 N66057       853.
##  2 N78060       850.
##  3 N67058       849.
##  4 N76065       847.
##  5 N69063       844.
##  6 N77066       843.
##  7 N66057       843.
##  8 N76055       837.
##  9 N76054       837.
## 10 N76054       834.
## # … with 697 more rows
```
…
