Importing data into R
…
.right-column[
The main function in the readxl package that we would use is `read_excel`.
]

.right-column.small[

```r
xlsx_example <- readxl_example("datasets.xlsx")
read_excel(xlsx_example)
```

```
## # A tibble: 150 × 5
##    Sepal.Length Sepal.Width Petal.Length Petal.Width Species
##           <dbl>       <dbl>        <dbl>       <dbl> <chr>  
##  1          5.1         3.5          1.4         0.2 setosa 
##  2          4.9         3            1.4         0.2 setosa 
##  3          4.7         3.2          1.3         0.2 setosa 
##  4          4.6         3.1          1.5         0.2 setosa 
##  5          5           3.6          1.4         0.2 setosa 
##  6          5.4         3.9          1.7         0.4 setosa 
##  7          4.6         3.4          1.4         0.3 setosa 
##  8          5           3.4          1.5         0.2 setosa 
##  9          4.4         2.9          1.4         0.2 setosa 
## 10          4.9         3.1          1.5         0.1 setosa 
## # … with 140 more rows
```
…
.right-column[
In Excel, we can have multiple sheets in the same document.
By default, `read_excel` reads the first sheet.
This behaviour we can change by manipulating the `sheet` argument, and we can either give the sheet name, or a number.
]

.right-column.small[

```r
read_excel(xlsx_example, sheet = "mtcars")
```

```
## # A tibble: 32 × 11
##      mpg   cyl  disp    hp  drat    wt  qsec    vs    am  gear  carb
##    <dbl> <dbl> <dbl> <dbl> <dbl> <dbl> <dbl> <dbl> <dbl> <dbl> <dbl>
##  1  21       6  160    110  3.9   2.62  16.5     0     1     4     4
##  2  21       6  160    110  3.9   2.88  17.0     0     1     4     4
##  3  22.8     4  108     93  3.85  2.32  18.6     1     1     4     1
##  4  21.4     6  258    110  3.08  3.22  19.4     1     0     3     1
##  5  18.7     8  360    175  3.15  3.44  17.0     0     0     3     2
##  6  18.1     6  225    105  2.76  3.46  20.2     1     0     3     1
##  7  14.3     8  360    245  3.21  3.57  15.8     0     0     3     4
##  8  24.4     4  147.    62  3.69  3.19  20       1     0     4     2
##  9  22.8     4  141.    95  3.92  3.15  22.9     1     0     4     2
## 10  19.2     6  168.   123  3.92  3.44  18.3     1     0     4     4
## # … with 22 more rows
```
…
```
## 
## ── Column specification ────────────────────────────────────────────────────────
## cols(
##   earn = col_double(),
##   height = col_double(),
##   sex = col_character(),
##   ed = col_double(),
##   age = col_double(),
##   race = col_character()
## )
```

```
## # A tibble: 1,192 × 6
##     earn height sex       ed   age race    
##    <dbl>  <dbl> <chr>  <dbl> <dbl> <chr>   
##  1 50000   74.4 male      16    45 white   
##  2 60000   65.5 female    16    58 white   
##  3 30000   63.6 female    16    29 white   
##  4 50000   63.1 female    16    91 other   
##  5 51000   63.4 female    17    39 white   
##  6  9000   64.4 female    15    26 white   
##  7 29000   61.7 female    12    49 white   
##  8 32000   72.7 male      17    46 white   
##  9  2000   72.0 male      15    21 hispanic
## 10 27000   72.2 male      12    26 white   
## # … with 1,182 more rows
```
…
```r
challenge
```

```
## # A tibble: 2,000 × 2
##        x y    
##    <dbl> <lgl>
##  1   404 NA   
##  2  4172 NA   
##  3  3004 NA   
##  4   787 NA   
##  5    37 NA   
##  6  2332 NA   
##  7  2489 NA   
##  8  1449 NA   
##  9  3665 NA   
## 10  3863 NA   
## # … with 1,990 more rows
```
…
.left-column[
## Introduction
## Vector parsing
## File parsing
### Identifying problems
]

.right-column.small[

```r
problems(challenge)
```

```
## # A tibble: 1,000 × 5
##      row col   expected           actual     file                               
##    <int> <chr> <chr>              <chr>      <chr>                              
##  1  1001 y     1/0/T/F/TRUE/FALSE 2015-01-16 '/Library/Frameworks/R.framework/V…
##  2  1002 y     1/0/T/F/TRUE/FALSE 2018-05-18 '/Library/Frameworks/R.framework/V…
##  3  1003 y     1/0/T/F/TRUE/FALSE 2015-09-05 '/Library/Frameworks/R.framework/V…
##  4  1004 y     1/0/T/F/TRUE/FALSE 2012-11-28 '/Library/Frameworks/R.framework/V…
##  5  1005 y     1/0/T/F/TRUE/FALSE 2020-01-13 '/Library/Frameworks/R.framework/V…
##  6  1006 y     1/0/T/F/TRUE/FALSE 2016-04-17 '/Library/Frameworks/R.framework/V…
##  7  1007 y     1/0/T/F/TRUE/FALSE 2011-05-14 '/Library/Frameworks/R.framework/V…
##  8  1008 y     1/0/T/F/TRUE/FALSE 2020-07-18 '/Library/Frameworks/R.framework/V…
##  9  1009 y     1/0/T/F/TRUE/FALSE 2011-04-30 '/Library/Frameworks/R.framework/V…
## 10  1010 y     1/0/T/F/TRUE/FALSE 2010-05-11 '/Library/Frameworks/R.framework/V…
## # … with 990 more rows
```
…
.right-column[
Every `parse_*` function has a corresponding `col_*` function.
]

.right-column.small[

```r
challenge <- read_csv(readr_example("challenge.csv"),
                      col_types = cols(y = col_date()))
challenge
```

```
## # A tibble: 2,000 × 2
##        x y     
##    <dbl> <date>
##  1   404 NA    
##  2  4172 NA    
##  3  3004 NA    
##  4   787 NA    
##  5    37 NA    
##  6  2332 NA    
##  7  2489 NA    
##  8  1449 NA    
##  9  3665 NA    
## 10  3863 NA    
## # … with 1,990 more rows
```
…
.right-column[
When writing a text file, any type information is lost.

.small[

```r
challenge
```

```
## # A tibble: 2,000 × 2
##       x y     
##   <dbl> <date>
## 1   404 NA    
## 2  4172 NA    
## 3  3004 NA    
## 4   787 NA    
## # … with 1,996 more rows
```
…
```
## 
## ── Column specification ────────────────────────────────────────────────────────
## cols(
##   x = col_double(),
##   y = col_logical()
## )
```

```r
challenge2
```

```
## # A tibble: 2,000 × 2
##       x y    
##   <dbl> <lgl>
## 1   404 NA   
## 2  4172 NA   
## 3  3004 NA   
## 4   787 NA   
## # … with 1,996 more rows
```
…
`write_rds`, takes a tibble and a file name and saves a binary representation of the file.

```r
write_rds(challenge, "data/challenge.rds")
```

When reading it back with `read_rds`, we get the whole R object, in this case a data frame.

```r
read_rds("data/challenge.rds")
```

```
## # A tibble: 2,000 × 2
##       x y     
##   <dbl> <date>
## 1   404 NA    
## 2  4172 NA    
## 3  3004 NA    
## 4   787 NA    
## # … with 1,996 more rows
```
…
