10_importing_data_into_r_scratchpad.R
…
has_rownames(mtcars)

## [1] TRUE

Let’s put the row names into a column of their own, and convert the data frame to a tibble.

rownames_to_column(mtcars, "model") %>% 
  as_tibble()

## # A tibble: 32 × 12
##    model         mpg   cyl  disp    hp  drat    wt  qsec    vs    am  gear  carb
##    <chr>       <dbl> <dbl> <dbl> <dbl> <dbl> <dbl> <dbl> <dbl> <dbl> <dbl> <dbl>
##  1 Mazda RX4    21       6  160    110  3.9   2.62  16.5     0     1     4     4
##  2 Mazda RX4 …  21       6  160    110  3.9   2.88  17.0     0     1     4     4
##  3 Datsun 710   22.8     4  108     93  3.85  2.32  18.6     1     1     4     1
##  4 Hornet 4 D…  21.4     6  258    110  3.08  3.22  19.4     1     0     3     1
##  5 Hornet Spo…  18.7     8  360    175  3.15  3.44  17.0     0     0     3     2
##  6 Valiant      18.1     6  225    105  2.76  3.46  20.2     1     0     3     1
##  7 Duster 360   14.3     8  360    245  3.21  3.57  15.8     0     0     3     4
##  8 Merc 240D    24.4     4  147.    62  3.69  3.19  20       1     0     4     2
##  9 Merc 230     22.8     4  141.    95  3.92  3.15  22.9     1     0     4     2
## 10 Merc 280     19.2     6  168.   123  3.92  3.44  18.3     1     0     4     4
## # … with 22 more rows
…
There are some columns that consist of only missing values. Those I detect here by summarising every column in the tibble where I check if all values in the column are missing.

na_cols <- d %>%
  summarise(across(everything(), ~ all(is.na(.)))) %>% 
  unlist()

The na_cols object is then a logical vector where all TRUE values indicate columns that only contain missing values. In order to select all other columns, we can index the tibble based on the negation of this vector.

d[, !na_cols]

## # A tibble: 170 × 48
##     ...1  ...3  ...4  ...5     ...6    ...7  ...9 ...11 ...12 ...13  ...14  ...15
##    <dbl> <dbl> <dbl> <dbl>    <dbl>   <dbl> <dbl> <dbl> <dbl> <dbl>  <dbl>  <dbl>
##  1     1  287. 7386. 3879. 2118023. 768133.     1  593. 5290  6060. 3.14e6 1.14e6
##  2     2  185. 8045. 4692. 1486319. 539036.     2  452. 6648. 5877. 3.01e6 1.09e6
##  3     3  176. 6544. 3554. 1154781. 418799.     3  358. 6456. 5615. 2.31e6 8.39e5
##  4     4  314. 3340. 1529. 1049948. 380779.     4  290. 7287. 5343. 2.11e6 7.65e5
##  5     5  182. 6183. 3490. 1125191. 408067.     5  207. 4716. 3371. 9.75e5 3.54e5
##  6     6  185. 7619. 3906. 1407593. 510485.     6  375  7208. 6651. 2.70e6 9.80e5
##  7     7  276. 5814. 2704. 1603080. 581381.     7  262. 6554. 3750. 1.72e6 6.23e5
##  8     8  196. 4830. 2187.  945561. 342922.     8  397. 6157. 5524. 2.44e6 8.87e5
##  9     9  127. 4984. 2702.  632192. 229274.     9  314. 7051. 5830. 2.22e6 8.04e5
## 10    10  165. 7517. 3310. 1243604. 451012.    10  240. 7421. 5040. 1.78e6 6.46e5
## # … with 160 more rows, and 36 more variables: ...17 <dbl>, ...19 <dbl>,
## #   ...20 <dbl>, ...21 <dbl>, ...22 <dbl>, ...23 <dbl>, ...25 <dbl>,
## #   ...27 <dbl>, ...28 <dbl>, ...29 <dbl>, ...30 <dbl>, ...31 <dbl>,
## #   ...33 <dbl>, ...35 <dbl>, ...36 <dbl>, ...37 <dbl>, ...38 <dbl>,
## #   ...39 <dbl>, ...41 <dbl>, ...43 <dbl>, ...44 <dbl>, ...45 <dbl>,
## #   ...46 <dbl>, ...47 <dbl>, ...49 <dbl>, ...51 <dbl>, ...52 <dbl>,
## #   ...53 <dbl>, ...54 <dbl>, ...55 <dbl>, ...57 <dbl>, ...59 <dbl>, …

We could achieve the same results in a more tidyverse manner:

d %>% select(which(!na_cols))

## # A tibble: 170 × 48
##     ...1  ...3  ...4  ...5     ...6    ...7  ...9 ...11 ...12 ...13  ...14  ...15
##    <dbl> <dbl> <dbl> <dbl>    <dbl>   <dbl> <dbl> <dbl> <dbl> <dbl>  <dbl>  <dbl>
##  1     1  287. 7386. 3879. 2118023. 768133.     1  593. 5290  6060. 3.14e6 1.14e6
##  2     2  185. 8045. 4692. 1486319. 539036.     2  452. 6648. 5877. 3.01e6 1.09e6
##  3     3  176. 6544. 3554. 1154781. 418799.     3  358. 6456. 5615. 2.31e6 8.39e5
##  4     4  314. 3340. 1529. 1049948. 380779.     4  290. 7287. 5343. 2.11e6 7.65e5
##  5     5  182. 6183. 3490. 1125191. 408067.     5  207. 4716. 3371. 9.75e5 3.54e5
##  6     6  185. 7619. 3906. 1407593. 510485.     6  375  7208. 6651. 2.70e6 9.80e5
##  7     7  276. 5814. 2704. 1603080. 581381.     7  262. 6554. 3750. 1.72e6 6.23e5
##  8     8  196. 4830. 2187.  945561. 342922.     8  397. 6157. 5524. 2.44e6 8.87e5
##  9     9  127. 4984. 2702.  632192. 229274.     9  314. 7051. 5830. 2.22e6 8.04e5
## 10    10  165. 7517. 3310. 1243604. 451012.    10  240. 7421. 5040. 1.78e6 6.46e5
## # … with 160 more rows, and 36 more variables: ...17 <dbl>, ...19 <dbl>,
## #   ...20 <dbl>, ...21 <dbl>, ...22 <dbl>, ...23 <dbl>, ...25 <dbl>,
## #   ...27 <dbl>, ...28 <dbl>, ...29 <dbl>, ...30 <dbl>, ...31 <dbl>,
## #   ...33 <dbl>, ...35 <dbl>, ...36 <dbl>, ...37 <dbl>, ...38 <dbl>,
## #   ...39 <dbl>, ...41 <dbl>, ...43 <dbl>, ...44 <dbl>, ...45 <dbl>,
## #   ...46 <dbl>, ...47 <dbl>, ...49 <dbl>, ...51 <dbl>, ...52 <dbl>,
## #   ...53 <dbl>, ...54 <dbl>, ...55 <dbl>, ...57 <dbl>, ...59 <dbl>, …
