Advanced plotting: The grammar of graphics
…
.left-column[
## Input data
]

.right-column[
The summarising geoms can work on two different types of datasets:

1. Datasets where you have all observations.
2. Datasets that are summaries of all observations.

.pull-left[

```
## # A tibble: 30 x 2
##        x     y
##    <int> <dbl>
##  1     1 3.70 
##  2     1 3.85 
##  3     1 2.87 
##  4     1 2.46 
##  5     1 3.73 
##  6     1 0.818
##  7     1 3.76 
##  8     1 2.67 
##  9     1 2.66 
## 10     1 1.90 
## # … with 20 more rows
```
…
