Data quality control
…
```
## # A tibble: 1,593 × 12
##     year site  block clone leaf  position metacol metarow population circularity
##    <dbl> <fct> <fct> <fct> <fct> <fct>    <fct>   <fct>   <fct>            <dbl>
##  1  2008 Ekebo 1     1     5     111      7       14      Simlang          0.853
##  2  2008 Ekebo 2     1     5.5   173      5       22      Simlang          0.874
##  3  2008 Ekebo 3     1     5     255      10      2       Simlang          0.930
##  4  2008 Ekebo 4     1     5     494      19      16      Simlang          0.857
##  5  2008 Ekebo 1     2     5.5   121      1       16      Simlang          0.892
##  6  2008 Ekebo 2     2     5.5   136      8       17      Simlang          0.859
##  7  2008 Ekebo 3     2     4.5   299      9       11      Simlang          0.859
##  8  2008 Ekebo 4     2     5.5   458      15      12      Simlang          0.880
##  9  2008 Ekebo 1     3     5.5   118      6       15      Simlang          0.728
## 10  2008 Ekebo 2     3     5.5   137      1       18      Simlang          0.784
## # … with 1,583 more rows, and 2 more variables: indent_depth <dbl>, area <dbl>
```
…
