Statistical testing
…
# Model residuals

.pull-left[
<img src="./figures/statistical_testing_sim1_residual_lines-1.png" width="432" />
]

.pull-right[

```r
sim1 <- add_residuals(sim1, sim1_mod)
sim1
```

```
## # A tibble: 30 × 3
##        x     y    resid
##    <int> <dbl>    <dbl>
##  1     1  4.20 -2.07   
##  2     1  7.51  1.24   
##  3     1  2.13 -4.15   
##  4     2  8.99  0.665  
##  5     2 10.2   1.92   
##  6     2 11.3   2.97   
##  7     3  7.36 -3.02   
##  8     3 10.5   0.130  
##  9     3 10.5   0.136  
## 10     4 12.4   0.00763
## # … with 20 more rows
```
…
As you might be able to tell, this also causes problems if we have confounded variables in our data.

---

# Categorical independent variables

.pull-left[

```r
sim2
```

```
## # A tibble: 30 × 2
##    x          y
##    <fct>  <dbl>
##  1 A/A    1.94 
##  2 A/A    1.18 
##  3 A/A    1.24 
##  4 A/A    2.62 
##  5 A/A    1.11 
##  6 A/A    0.866
##  7 A/A   -0.910
##  8 A/A    0.721
##  9 A/A    0.687
## 10 A/A    2.07 
## # … with 20 more rows
```
…
