Advanced R: Functions
…
.right-column[
While we normally want to name our functions, we have seen cases where it's not worth naming them.
These function are called **anonymous functions**.

```r
mpg %>%
  group_by(manufacturer, model) %>%
  summarise(across(c(cyl, trans, class), function(.) length(unique(.))))
```

```
## # A tibble: 38 × 5
## # Groups:   manufacturer [15]
##    manufacturer model                cyl trans class
##    <chr>        <chr>              <int> <int> <int>
##  1 audi         a4                     2     4     1
##  2 audi         a4 quattro             2     4     1
##  3 audi         a6 quattro             2     2     1
##  4 chevrolet    c1500 suburban 2wd     1     1     1
##  5 chevrolet    corvette               1     3     1
##  6 chevrolet    k1500 tahoe 4wd        1     1     1
##  7 chevrolet    malibu                 2     2     1
##  8 dodge        caravan 2wd            2     3     1
##  9 dodge        dakota pickup 4wd      2     4     1
## 10 dodge        durango 4wd            2     2     1
## # … with 28 more rows
```
…
